<?xml version="1.0" encoding="UTF-8"?>
<!DOCTYPE svg PUBLIC "-//W3C//DTD SVG 1.1//EN" "http://www.w3.org/Graphics/SVG/1.1/DTD/svg11.dtd">
<!-- Creator: CorelDRAW 2018 (64 Bit) -->
<svg xmlns="http://www.w3.org/2000/svg" xml:space="preserve" width="233.118mm" height="233.118mm" version="1.1" style="shape-rendering:geometricPrecision; text-rendering:geometricPrecision; image-rendering:optimizeQuality; fill-rule:evenodd; clip-rule:evenodd"
viewBox="0 0 1660691 1660691"
 xmlns:xlink="http://www.w3.org/1999/xlink">
 <defs>
  <style type="text/css">
   <![CDATA[
    .fil2 {fill:#FEFEFE}
    .fil1 {fill:white;fill-rule:nonzero}
    .fil0 {fill:#00AA5B}
   ]]>
  </style>
 </defs>
 <g id="Capa_x0020_1">
  <metadata id="CorelCorpID_0Corel-Layer"/>
  <g id="_3058673397968">
   <g>
    <path class="fil0" d="M13849 680131c82962,-450938 515773,-749242 966711,-666281 450938,82962 749242,515773 666281,966711 -82962,450938 -515773,749242 -966711,666281 -450938,-82961 -749242,-515772 -666281,-966710z"/>
    <g>
     <g>
      <path class="fil1" d="M938601 235457l-8707 47325 0 0 -28394 -4485 -28267 -3008 -28106 -1562 -27906 -146 -27667 1243 -27391 2603 -27075 3935 -26719 5240 -26322 6515 -25887 7765 -25409 8985 -24891 10178 -24331 11343 -23732 12479 -23090 13588 -22406 14667 -21681 15719 -20915 16742 -20108 17736 -19260 18702 -18370 19639 -17440 20547 -16469 21428 -15457 22280 -14406 23104 -13313 23902 -12182 24671 -11008 25414 -9796 26130 -8542 26821 -7248 27486 -5915 28132 -47325 -8707 6414 -30507 7868 -29840 9279 -29132 10644 -28394 11964 -27621 13240 -26817 14471 -25981 15657 -25113 16798 -24212 17895 -23283 18946 -22322 19953 -21332 20916 -20311 21835 -19259 22709 -18178 23541 -17067 24326 -15924 25070 -14753 25769 -13550 26424 -12319 27037 -11054 27603 -9761 28128 -8436 28606 -7081 29040 -5694 29430 -4277 29773 -2830 30071 -1350 30323 159 30528 1698 30686 3266 30792 4864 0 0zm486411 705736l-47325 -8707 0 0 4485 -28394 3008 -28267 1562 -28106 146 -27906 -1243 -27667 -2603 -27391 -3935 -27075 -5240 -26719 -6515 -26322 -7765 -25887 -8985 -25409 -10179 -24892 -11342 -24331 -12479 -23732 -13588 -23090 -14667 -22406 -15719 -21681 -16742 -20915 -17736 -20108 -18702 -19260 -19639 -18370 -20547 -17440 -21428 -16469 -22280 -15457 -23105 -14406 -23901 -13313 -24671 -12182 -25414 -11008 -26130 -9796 -26822 -8542 -27486 -7248 -28132 -5915 8707 -47325 30507 6414 29840 7868 29133 9279 28394 10644 27621 11964 26817 13240 25980 14471 25114 15657 24212 16798 23283 17895 22322 18946 21332 19953 20311 20916 19259 21835 18178 22709 17067 23541 15924 24326 14753 25070 13550 25769 12318 26424 11055 27036 9761 27604 8436 28128 7081 28606 5694 29040 4277 29430 2830 29773 1350 30071 -159 30323 -1698 30528 -3266 30686 -4864 30792 0 0zm-705736 486411l8707 -47325 0 0 28394 4485 28267 3008 28105 1562 27906 145 27668 -1243 27391 -2603 27075 -3935 26719 -5240 26322 -6515 25887 -7765 25409 -8985 24891 -10178 24331 -11343 23732 -12479 23090 -13587 22406 -14667 21681 -15719 20915 -16742 20109 -17736 19259 -18701 18370 -19640 17440 -20547 16469 -21428 15457 -22281 14406 -23104 13313 -23902 12182 -24671 11008 -25414 9796 -26130 8542 -26821 7248 -27486 5915 -28132 47325 8707 -6414 30507 -7868 29840 -9279 29132 -10644 28394 -11964 27621 -13240 26817 -14471 25981 -15657 25113 -16798 24213 -17895 23283 -18946 22322 -19953 21332 -20916 20310 -21834 19259 -22709 18178 -23541 17066 -24326 15925 -25070 14753 -25769 13550 -26424 12319 -27037 11054 -27603 9761 -28128 8436 -28606 7081 -29040 5694 -29430 4277 -29773 2830 -30070 1350 -30323 -158 -30528 -1698 -30686 -3266 -30792 -4864 0 0zm-486411 -705737l47325 8707 0 0 -4485 28394 -3008 28267 -1562 28106 -146 27905 1244 27668 2603 27392 3935 27075 5240 26719 6515 26322 7764 25887 8985 25409 10178 24891 11342 24332 12480 23732 13587 23090 14667 22406 15719 21681 16742 20915 17735 20109 18702 19259 19639 18370 20548 17440 21428 16469 22280 15457 23105 14406 23901 13313 24671 12182 25414 11008 26130 9796 26822 8542 27486 7248 28132 5915 -8707 47325 -30507 -6414 -29840 -7868 -29133 -9279 -28394 -10644 -27621 -11964 -26817 -13240 -25980 -14471 -25114 -15657 -24212 -16798 -23283 -17895 -22323 -18946 -21332 -19953 -20311 -20916 -19259 -21834 -18178 -22709 -17066 -23541 -15925 -24326 -14753 -25070 -13551 -25769 -12318 -26425 -11054 -27036 -9762 -27604 -8435 -28128 -7081 -28606 -5694 -29040 -4277 -29430 -2830 -29773 -1351 -30072 159 -30323 1698 -30528 3266 -30686 4864 -30792 0 0z"/>
     </g>
     <g>
      <path class="fil2" d="M841491 1408820l4460 91262c94,1916 -898,3604 -2616,4455 -1718,851 -3662,617 -5128,-618l-102675 -86463c-1039,-875 -1605,-2018 -1671,-3375 -67,-1358 385,-2550 1334,-3523l93756 -96062c1339,-1372 3251,-1794 5044,-1116 1793,680 2944,2263 3038,4178l4460 91262z"/>
      <path class="fil2" d="M314234 558640l-81266 -41769c-1705,-877 -2671,-2580 -2550,-4493 123,-1913 1297,-3479 3100,-4132l126216 -45687c1278,-463 2551,-382 3759,240 1209,621 2016,1609 2384,2917l36314 129225c519,1846 -71,3713 -1556,4926 -1485,1212 -3432,1418 -5137,541l-81265 -41769z"/>
      <path class="fil2" d="M1314140 527113l76806 -49493c1611,-1039 3569,-1024 5165,38 1595,1062 2364,2863 2028,4750l-23541 132151c-239,1338 -945,2399 -2088,3135 -1142,737 -2401,942 -3718,606l-130069 -33164c-1858,-474 -3180,-1918 -3488,-3811 -308,-1892 487,-3681 2099,-4720l76805 -49493z"/>
     </g>
    </g>
   </g>
   <path class="fil2" d="M830333 822274c8602,37736 6560,74653 3063,110285 -4868,1271 -10865,4250 -21699,5658 -53504,6953 -103866,-40591 -109047,-40146 -5429,466 5059,21646 8180,25787 3233,4291 11234,13960 16076,18463 1418,1319 1986,3150 1564,5041 -5123,22958 -5875,34295 5448,59831 2912,6567 11260,21189 14768,27515 1044,1884 883,4078 -423,5790 -7200,9435 -17358,16690 -20628,20452 -1583,1821 -1540,2249 -3136,4060 -1474,1673 -2541,2417 -3939,4157 -5546,6906 -14260,21140 -13821,30528 26,536 115,991 291,1497l1502 4312c592,1700 1869,2894 3605,3370 1735,477 3444,102 4820,-1056 9011,-7585 23776,-20995 34193,-28025 7279,-4914 14447,-9881 22745,-13287 41270,-16939 60333,-364 66468,-389 4321,-18 19901,-13579 44034,-13678 21813,-90 43906,15593 53739,28037 3659,4631 30224,47326 31166,50796l1799 -7c1358,-5936 4009,-11211 5274,-17173 4528,-21326 2999,-39279 -5979,-57456 -891,-1803 -727,-3810 447,-5443 5884,-8194 7848,-7649 15736,-24657 9084,-19584 7727,-43877 -2679,-63586 -5040,-9549 -692,-7794 2831,-25874 3001,-15397 4110,-33854 -3724,-48210 -1710,-3132 -4836,-7870 -8001,-11764 -1152,-1416 -2792,-2105 -4609,-1936 -1817,170 -3302,1150 -4172,2755 -3479,6422 -8996,14454 -11388,17666 -16938,22731 -40210,42454 -73610,42590 -8782,36 -15921,-206 -23120,-1329 -3428,-50102 -1544,-91144 1490,-113874 82783,-14110 142778,-92506 116380,-194526 -13096,-50605 -98254,-195505 -131493,-195913 -30133,-382 -113410,135548 -129059,190720 -29862,105343 32387,187407 114907,199019zm51213 196571c2801,-1648 5747,-5403 6595,-8137 846,-2732 -407,-4442 -2674,-5993 -2269,-1551 -5549,-2941 -8828,-3707 -3278,-767 -6553,-910 -9749,-663 -3197,247 -6314,884 -8573,1361 -2260,478 -3662,795 -3579,2042 83,1248 1651,3424 3376,5522 1724,2099 3604,4119 5326,5593 1722,1475 3285,2404 4926,3098 1640,695 3356,1156 5542,1616 2186,459 4838,915 7639,-734zm-42418 -18618c-1629,2346 -4268,5320 -5897,7120 -1631,1801 -2251,2427 -3808,3058 -1557,630 -4049,1264 -6622,1274 -2575,11 -5228,-602 -6867,-1142 -1641,-539 -2266,-1004 -2738,-1861 -471,-855 -787,-2102 -248,-3741 539,-1640 1933,-3673 3330,-5394 1396,-1721 2794,-3130 4428,-4151 1633,-1019 3502,-1651 5372,-1970 1870,-320 3740,-328 5769,-180 2028,148 4213,451 5929,677 1717,228 2965,379 3281,1313 316,935 -301,2651 -1928,4998zm27623 -14461c-4520,643 -12319,207 -16221,-401 -3901,-608 -3905,-1388 -3286,-2638 618,-1250 1859,-2971 3256,-4771 1396,-1799 2947,-3676 4424,-5008 1475,-1331 2876,-2117 4511,-2904 1633,-786 3502,-1574 4982,-2048 1479,-473 2570,-634 3664,-93 1094,542 2190,1785 3521,2949 1330,1165 2894,2250 3757,3338 861,1089 1022,2179 638,3429 -385,1250 -1315,2656 -2401,4219 -1085,1564 -2325,3285 -6845,3927zm-301627 104876c15213,-63 21961,-63 35566,-10426 6950,-5294 14173,-10971 19224,-17675 11301,-14994 10188,-22988 13047,-40827 641,-4003 876,-6154 1066,-7491 298,-2077 1680,-3694 3685,-4315 2005,-620 4058,-65 5477,1482 969,1056 1641,2378 1691,4165 72,2521 -1379,10297 -1725,13580 -3566,33741 -3536,15749 -3363,57600 59,14498 9445,37446 16427,49393 8621,14748 16494,21519 29302,28687 1329,745 2752,888 4204,425 1452,-463 2528,-1405 3181,-2781l8298 -17503c1301,-2668 2570,-4881 3969,-7790 3788,-7890 -6741,-13291 -6832,-35375 -130,-31721 25141,-48360 35683,-61531 1421,-1775 1572,-4135 388,-6077 -679,-1112 -1482,-2102 -2344,-3441 -1433,-2225 -2762,-4359 -4058,-6751 -23582,-43497 -13551,-68364 -15057,-77807 -286,-1787 -12295,-18803 -16577,-27631 -11861,-24452 -12447,-39571 -12556,-65946 -4,-974 28,-1771 79,-2456 162,-2131 -878,-4043 -2756,-5064 -1878,-1020 -4048,-854 -5747,440 -2384,1817 -4112,4310 -6239,6874 -5539,6675 -4994,3914 -10998,14183 -15073,25783 -17324,54007 -17152,85207 30,5392 927,6515 1014,11587 0,29 0,52 0,80l57 24886c1,251 16,464 49,714 660,4789 3390,4486 4497,8568 -5981,-3133 -6245,-3697 -14231,-5529 -9626,-2206 -30446,-7483 -44269,-9544 -2761,-412 -5357,1373 -5962,4098 -604,2725 994,5441 3670,6235 2396,710 5225,1468 8582,2264 3521,834 8194,1769 12445,3105 2079,653 3484,2390 3689,4559 206,2170 -847,4140 -2767,5173 -5521,2972 -11413,6823 -14705,9116 -17716,12337 -17829,22310 -28044,45667 -1540,3521 -5878,13626 -8236,20680 -515,1542 -340,3075 511,4461 851,1384 2141,2233 3749,2469 1020,149 2228,266 4067,259zm436616 -167356c125,30288 -10595,27673 -6275,39732 9859,27515 11333,57392 -5274,82335 -9270,13922 -9145,9440 -4977,18377 1022,2188 1938,5105 2559,7359 9601,34796 -10169,66640 -11324,80359 -128,1521 -608,2121 3516,1286 6453,-1307 17520,-11392 22384,-15566 23338,-20019 43250,-50967 43105,-86289 -85,-20572 -7330,-32150 -7438,-58456 -61,-14997 6193,-25458 6102,-47715 -88,-21552 -539,-41356 -14114,-59856 -1534,-2090 -2698,-3743 -4376,-5527 -915,-970 -1321,-1244 -2206,-2294 -1417,-1678 -889,-1480 -2176,-2786 -144,-146 -274,-264 -432,-393l-10563 -8603c-93,-75 -174,-136 -271,-205 -4433,-3162 -7320,-4610 -12408,-7125 -3784,-1869 -10463,-5079 -17034,-7372 -2174,-759 -4483,-88 -5911,1718 -1428,1807 -1548,4208 -307,6148 1364,2130 2542,4078 3959,6310 3529,5557 12101,19560 14716,25820 4346,10404 8691,19714 8744,32744zm-216662 -377772c11641,22642 22644,33165 45280,46548l-1328 -105715c-17810,21299 -30081,30723 -43953,59168zm73754 46592c22211,-11521 35467,-22569 45562,-46592 -14996,-29161 -25778,-37006 -43264,-58849l-2297 105441zm-27955 200036c-978,-43805 -15752,-50978 -36243,-70271 -20491,-19301 -35588,-37223 -57287,-52485 -699,67774 36948,112524 93530,122755zm28201 -398c56752,-7989 93565,-54519 93692,-122049 -19955,14855 -34380,31179 -53466,49644 -28440,27519 -39664,22344 -40226,72406zm-230 -156703l434 80258c26730,-13219 20603,-17595 41503,-40447 15828,-17304 29104,-26883 44047,-44786l-19215 -53647 -66768 58623zm-115912 -5847c29078,29062 56616,67366 87421,86113l690 -31432 -120 -23060c0,-34563 -46982,-75618 -67191,-84914l-20799 53293z"/>
  </g>
 </g>
</svg>
