<?xml version="1.0" standalone="no"?>
 <!DOCTYPE svg PUBLIC "-//W3C//DTD SVG 1.1//EN" 
 "http://www.w3.org/Graphics/SVG/1.1/DTD/svg11.dtd"> 
<svg
  xmlns:svg="http://www.w3.org/2000/svg"
  xmlns="http://www.w3.org/2000/svg"
  xmlns:xlink="http://www.w3.org/1999/xlink"
  version="1.1"
  width="9.458960cm" height="6.449060cm" viewBox="0 0 94589600 64490600">
<title>SVG Picture created as desafíoMT08-brd.svg date 2022/02/21 17:39:57 </title>
  <desc>Picture generated by PCBNEW </desc>
<g style="fill:#000000; fill-opacity:1.000000;stroke:#000000; stroke-opacity:1.000000;
stroke-linecap:round; stroke-linejoin:round;"
 transform="translate(0 0) scale(1 1)">
</g>
<g style="fill:#000000; fill-opacity:0.0; 
stroke:#000000; stroke-width:0.000000; stroke-opacity:1; 
stroke-linecap:round; stroke-linejoin:round;">
<g >
</g>
<g style="fill:#000000; fill-opacity:0.0; 
stroke:#000000; stroke-width:1.000000; stroke-opacity:1; 
stroke-linecap:round; stroke-linejoin:round;">
</g>
<g style="fill:#000000; fill-opacity:1.0; 
stroke:#000000; stroke-width:1.000000; stroke-opacity:1; 
stroke-linecap:round; stroke-linejoin:round;">
<path style="fill:#000000; fill-opacity:1.0; 
stroke:#000000; stroke-width:1.000000; stroke-opacity:1; 
stroke-linecap:round; stroke-linejoin:round;fill-rule:evenodd;"
d="M 12910001.000000,19569999.000000
12910001.000000,18070001.000000
15409999.000000,18070001.000000
15409999.000000,19569999.000000
Z" /> 
<path style="fill:#000000; fill-opacity:1.0; 
stroke:#000000; stroke-width:1.000000; stroke-opacity:1; 
stroke-linecap:round; stroke-linejoin:round;fill-rule:evenodd;"
d="M 5910001.000000,19569999.000000
5910001.000000,18070001.000000
8409999.000000,18070001.000000
8409999.000000,19569999.000000
Z" /> 
<path style="fill:#000000; fill-opacity:1.0; 
stroke:#000000; stroke-width:1.000000; stroke-opacity:1; 
stroke-linecap:round; stroke-linejoin:round;fill-rule:evenodd;"
d="M 12910001.000000,23569999.000000
12910001.000000,22070001.000000
15409999.000000,22070001.000000
15409999.000000,23569999.000000
Z" /> 
<path style="fill:#000000; fill-opacity:1.0; 
stroke:#000000; stroke-width:1.000000; stroke-opacity:1; 
stroke-linecap:round; stroke-linejoin:round;fill-rule:evenodd;"
d="M 5910001.000000,23569999.000000
5910001.000000,22070001.000000
8409999.000000,22070001.000000
8409999.000000,23569999.000000
Z" /> 
</g>
<g >
</g>
<g style="fill:#000000; fill-opacity:1.0; 
stroke:#000000; stroke-width:1.000000; stroke-opacity:1; 
stroke-linecap:round; stroke-linejoin:round;">
<path style="fill:#000000; fill-opacity:1.0; 
stroke:#000000; stroke-width:1.000000; stroke-opacity:1; 
stroke-linecap:round; stroke-linejoin:round;fill-rule:evenodd;"
d="M 48650061.000000,44034313.000000
48650061.000000,42334315.000000
50650059.000000,42334315.000000
50650059.000000,44034313.000000
Z" /> 
<path style="fill:#000000; fill-opacity:1.0; 
stroke:#000000; stroke-width:1.000000; stroke-opacity:1; 
stroke-linecap:round; stroke-linejoin:round;fill-rule:evenodd;"
d="M 52650061.000000,44034313.000000
52650061.000000,42334315.000000
54650059.000000,42334315.000000
54650059.000000,44034313.000000
Z" /> 
</g>
<g >
</g>
<g style="fill:#000000; fill-opacity:1.0; 
stroke:#000000; stroke-width:1.000000; stroke-opacity:1; 
stroke-linecap:round; stroke-linejoin:round;">
<path style="fill:#000000; fill-opacity:1.0; 
stroke:#000000; stroke-width:1.000000; stroke-opacity:1; 
stroke-linecap:round; stroke-linejoin:round;fill-rule:evenodd;"
d="M 12910001.000000,39889999.000000
12910001.000000,38390001.000000
15409999.000000,38390001.000000
15409999.000000,39889999.000000
Z" /> 
<path style="fill:#000000; fill-opacity:1.0; 
stroke:#000000; stroke-width:1.000000; stroke-opacity:1; 
stroke-linecap:round; stroke-linejoin:round;fill-rule:evenodd;"
d="M 5910001.000000,39889999.000000
5910001.000000,38390001.000000
8409999.000000,38390001.000000
8409999.000000,39889999.000000
Z" /> 
<path style="fill:#000000; fill-opacity:1.0; 
stroke:#000000; stroke-width:1.000000; stroke-opacity:1; 
stroke-linecap:round; stroke-linejoin:round;fill-rule:evenodd;"
d="M 5910001.000000,43889999.000000
5910001.000000,42390001.000000
8409999.000000,42390001.000000
8409999.000000,43889999.000000
Z" /> 
<path style="fill:#000000; fill-opacity:1.0; 
stroke:#000000; stroke-width:1.000000; stroke-opacity:1; 
stroke-linecap:round; stroke-linejoin:round;fill-rule:evenodd;"
d="M 12910001.000000,43889999.000000
12910001.000000,42390001.000000
15409999.000000,42390001.000000
15409999.000000,43889999.000000
Z" /> 
</g>
<g >
</g>
<g style="fill:#000000; fill-opacity:1.0; 
stroke:#000000; stroke-width:1.000000; stroke-opacity:1; 
stroke-linecap:round; stroke-linejoin:round;">
<path style="fill:#000000; fill-opacity:1.0; 
stroke:#000000; stroke-width:1.000000; stroke-opacity:1; 
stroke-linecap:round; stroke-linejoin:round;fill-rule:evenodd;"
d="M 5910001.000000,6869999.000000
5910001.000000,5370001.000000
8409999.000000,5370001.000000
8409999.000000,6869999.000000
Z" /> 
<path style="fill:#000000; fill-opacity:1.0; 
stroke:#000000; stroke-width:1.000000; stroke-opacity:1; 
stroke-linecap:round; stroke-linejoin:round;fill-rule:evenodd;"
d="M 12910001.000000,6869999.000000
12910001.000000,5370001.000000
15409999.000000,5370001.000000
15409999.000000,6869999.000000
Z" /> 
<path style="fill:#000000; fill-opacity:1.0; 
stroke:#000000; stroke-width:1.000000; stroke-opacity:1; 
stroke-linecap:round; stroke-linejoin:round;fill-rule:evenodd;"
d="M 12910001.000000,10869999.000000
12910001.000000,9370001.000000
15409999.000000,9370001.000000
15409999.000000,10869999.000000
Z" /> 
<path style="fill:#000000; fill-opacity:1.0; 
stroke:#000000; stroke-width:1.000000; stroke-opacity:1; 
stroke-linecap:round; stroke-linejoin:round;fill-rule:evenodd;"
d="M 5910001.000000,10869999.000000
5910001.000000,9370001.000000
8409999.000000,9370001.000000
8409999.000000,10869999.000000
Z" /> 
</g>
<g >
</g>
<g style="fill:#000000; fill-opacity:1.0; 
stroke:#000000; stroke-width:1.000000; stroke-opacity:1; 
stroke-linecap:round; stroke-linejoin:round;">
<path style="fill:#000000; fill-opacity:1.0; 
stroke:#000000; stroke-width:1.000000; stroke-opacity:1; 
stroke-linecap:round; stroke-linejoin:round;fill-rule:evenodd;"
d="M 48650061.000000,23720151.000000
48650061.000000,22020153.000000
50650059.000000,22020153.000000
50650059.000000,23720151.000000
Z" /> 
<path style="fill:#000000; fill-opacity:1.0; 
stroke:#000000; stroke-width:1.000000; stroke-opacity:1; 
stroke-linecap:round; stroke-linejoin:round;fill-rule:evenodd;"
d="M 52650061.000000,23720151.000000
52650061.000000,22020153.000000
54650059.000000,22020153.000000
54650059.000000,23720151.000000
Z" /> 
</g>
<g >
</g>
<g style="fill:#000000; fill-opacity:1.0; 
stroke:#000000; stroke-width:1.000000; stroke-opacity:1; 
stroke-linecap:round; stroke-linejoin:round;">
<path style="fill:#000000; fill-opacity:1.0; 
stroke:#000000; stroke-width:1.000000; stroke-opacity:1; 
stroke-linecap:round; stroke-linejoin:round;fill-rule:evenodd;"
d="M 34519999.000000,22015153.000000
34519999.000000,23715151.000000
32520001.000000,23715151.000000
32520001.000000,22015153.000000
Z" /> 
<path style="fill:#000000; fill-opacity:1.0; 
stroke:#000000; stroke-width:1.000000; stroke-opacity:1; 
stroke-linecap:round; stroke-linejoin:round;fill-rule:evenodd;"
d="M 30519999.000000,22015153.000000
30519999.000000,23715151.000000
28520001.000000,23715151.000000
28520001.000000,22015153.000000
Z" /> 
</g>
<g >
</g>
<g style="fill:#000000; fill-opacity:1.0; 
stroke:#000000; stroke-width:1.000000; stroke-opacity:1; 
stroke-linecap:round; stroke-linejoin:round;">
<path style="fill:#000000; fill-opacity:1.0; 
stroke:#000000; stroke-width:1.000000; stroke-opacity:1; 
stroke-linecap:round; stroke-linejoin:round;fill-rule:evenodd;"
d="M 75349999.000000,30289999.000000
72850001.000000,30289999.000000
72850001.000000,29790001.000000
75349999.000000,29790001.000000
Z" /> 
<path style="fill:#000000; fill-opacity:1.0; 
stroke:#000000; stroke-width:1.000000; stroke-opacity:1; 
stroke-linecap:round; stroke-linejoin:round;fill-rule:evenodd;"
d="M 75349999.000000,29489999.000000
72850001.000000,29489999.000000
72850001.000000,28990001.000000
75349999.000000,28990001.000000
Z" /> 
<path style="fill:#000000; fill-opacity:1.0; 
stroke:#000000; stroke-width:1.000000; stroke-opacity:1; 
stroke-linecap:round; stroke-linejoin:round;fill-rule:evenodd;"
d="M 75349999.000000,28689999.000000
72850001.000000,28689999.000000
72850001.000000,28190001.000000
75349999.000000,28190001.000000
Z" /> 
<path style="fill:#000000; fill-opacity:1.0; 
stroke:#000000; stroke-width:1.000000; stroke-opacity:1; 
stroke-linecap:round; stroke-linejoin:round;fill-rule:evenodd;"
d="M 75349999.000000,27889999.000000
72850001.000000,27889999.000000
72850001.000000,27390001.000000
75349999.000000,27390001.000000
Z" /> 
<path style="fill:#000000; fill-opacity:1.0; 
stroke:#000000; stroke-width:1.000000; stroke-opacity:1; 
stroke-linecap:round; stroke-linejoin:round;fill-rule:evenodd;"
d="M 75349999.000000,27089999.000000
72850001.000000,27089999.000000
72850001.000000,26590001.000000
75349999.000000,26590001.000000
Z" /> 
<path style="fill:#000000; fill-opacity:1.0; 
stroke:#000000; stroke-width:1.000000; stroke-opacity:1; 
stroke-linecap:round; stroke-linejoin:round;fill-rule:evenodd;"
d="M 75349999.000000,33839999.000000
72850001.000000,33839999.000000
72850001.000000,31840001.000000
75349999.000000,31840001.000000
Z" /> 
<path style="fill:#000000; fill-opacity:1.0; 
stroke:#000000; stroke-width:1.000000; stroke-opacity:1; 
stroke-linecap:round; stroke-linejoin:round;fill-rule:evenodd;"
d="M 80849999.000000,33839999.000000
78350001.000000,33839999.000000
78350001.000000,31840001.000000
80849999.000000,31840001.000000
Z" /> 
<path style="fill:#000000; fill-opacity:1.0; 
stroke:#000000; stroke-width:1.000000; stroke-opacity:1; 
stroke-linecap:round; stroke-linejoin:round;fill-rule:evenodd;"
d="M 75349999.000000,25039999.000000
72850001.000000,25039999.000000
72850001.000000,23040001.000000
75349999.000000,23040001.000000
Z" /> 
<path style="fill:#000000; fill-opacity:1.0; 
stroke:#000000; stroke-width:1.000000; stroke-opacity:1; 
stroke-linecap:round; stroke-linejoin:round;fill-rule:evenodd;"
d="M 80849999.000000,25039999.000000
78350001.000000,25039999.000000
78350001.000000,23040001.000000
80849999.000000,23040001.000000
Z" /> 
</g>
<g >
</g>
<g style="fill:#000000; fill-opacity:1.0; 
stroke:#000000; stroke-width:1.000000; stroke-opacity:1; 
stroke-linecap:round; stroke-linejoin:round;">
<path style="fill:#000000; fill-opacity:1.0; 
stroke:#000000; stroke-width:1.000000; stroke-opacity:1; 
stroke-linecap:round; stroke-linejoin:round;fill-rule:evenodd;"
d="M 12910001.000000,52589999.000000
12910001.000000,51090001.000000
15409999.000000,51090001.000000
15409999.000000,52589999.000000
Z" /> 
<path style="fill:#000000; fill-opacity:1.0; 
stroke:#000000; stroke-width:1.000000; stroke-opacity:1; 
stroke-linecap:round; stroke-linejoin:round;fill-rule:evenodd;"
d="M 5910001.000000,52589999.000000
5910001.000000,51090001.000000
8409999.000000,51090001.000000
8409999.000000,52589999.000000
Z" /> 
<path style="fill:#000000; fill-opacity:1.0; 
stroke:#000000; stroke-width:1.000000; stroke-opacity:1; 
stroke-linecap:round; stroke-linejoin:round;fill-rule:evenodd;"
d="M 12910001.000000,56589999.000000
12910001.000000,55090001.000000
15409999.000000,55090001.000000
15409999.000000,56589999.000000
Z" /> 
<path style="fill:#000000; fill-opacity:1.0; 
stroke:#000000; stroke-width:1.000000; stroke-opacity:1; 
stroke-linecap:round; stroke-linejoin:round;fill-rule:evenodd;"
d="M 5910001.000000,56589999.000000
5910001.000000,55090001.000000
8409999.000000,55090001.000000
8409999.000000,56589999.000000
Z" /> 
</g>
<g >
</g>
<g style="fill:#000000; fill-opacity:1.0; 
stroke:#000000; stroke-width:1.000000; stroke-opacity:1; 
stroke-linecap:round; stroke-linejoin:round;">
<path style="fill:#000000; fill-opacity:1.0; 
stroke:#000000; stroke-width:1.000000; stroke-opacity:1; 
stroke-linecap:round; stroke-linejoin:round;fill-rule:evenodd;"
d="M 72910001.000000,44529999.000000
72910001.000000,42830001.000000
75409999.000000,42830001.000000
75409999.000000,44529999.000000
Z" /> 
<path style="fill:#000000; fill-opacity:1.0; 
stroke:#000000; stroke-width:1.000000; stroke-opacity:1; 
stroke-linecap:round; stroke-linejoin:round;fill-rule:evenodd;"
d="M 72910001.000000,41989999.000000
72910001.000000,40290001.000000
75409999.000000,40290001.000000
75409999.000000,41989999.000000
Z" /> 
</g>
<g >
</g>
<g style="fill:#000000; fill-opacity:1.0; 
stroke:#000000; stroke-width:1.000000; stroke-opacity:1; 
stroke-linecap:round; stroke-linejoin:round;">
<path style="fill:#000000; fill-opacity:1.0; 
stroke:#000000; stroke-width:1.000000; stroke-opacity:1; 
stroke-linecap:round; stroke-linejoin:round;fill-rule:evenodd;"
d="M 34519999.000000,42334315.000000
34519999.000000,44034313.000000
32520001.000000,44034313.000000
32520001.000000,42334315.000000
Z" /> 
<path style="fill:#000000; fill-opacity:1.0; 
stroke:#000000; stroke-width:1.000000; stroke-opacity:1; 
stroke-linecap:round; stroke-linejoin:round;fill-rule:evenodd;"
d="M 30519999.000000,42334315.000000
30519999.000000,44034313.000000
28520001.000000,44034313.000000
28520001.000000,42334315.000000
Z" /> 
</g>
<g >
</g>
<g >
</g>
<g style="fill:#000000; fill-opacity:1.0; 
stroke:#000000; stroke-width:1.000000; stroke-opacity:1; 
stroke-linecap:round; stroke-linejoin:round;">
</g>
<g style="fill:#000000; fill-opacity:1.0; 
stroke:#000000; stroke-width:400000.000000; stroke-opacity:1; 
stroke-linecap:round; stroke-linejoin:round;">
</g>
<g style="fill:#000000; fill-opacity:0.0; 
stroke:#000000; stroke-width:400000.000000; stroke-opacity:1; 
stroke-linecap:round; stroke-linejoin:round;">
<path d="M10660000 33520000
L10660000 9120000
" />
<path d="M64000000 38600000
L64000000 32991015
" />
<path d="M53650060 22870152
L53650060 43184314
" />
<path d="M76700000 46220000
L71080000 51840000
" />
<path d="M76700000 42030000
L76700000 46220000
" />
<path d="M71080000 51840000
L14160000 51840000
" />
<path d="M75810000 41140000
L76700000 42030000
" />
<path d="M74160000 41140000
L75810000 41140000
" />
<path d="M73664314 43184314
L74160000 43680000
" />
<path d="M53650060 43184314
L73664314 43184314
" />
<path d="M72510489 26790489
L74100000 26790489
" />
<path d="M68590152 22870152
L72510489 26790489
" />
<path d="M7160000 37020000
L7160000 39140000
" />
<path d="M10660000 33520000
L7160000 37020000
" />
<path d="M7660000 6120000
L10660000 9120000
" />
<path d="M7160000 6120000
L7660000 6120000
" />
<path d="M54145746 43680000
L53650060 43184314
" />
<path d="M66540000 41140000
L64000000 38600000
" />
<path d="M64000000 32991015
L66901504 30089511
" />
<path d="M74160000 41140000
L66540000 41140000
" />
<path d="M66901504 30089511
L74100000 30089511
" />
<path d="M53650060 22870152
L68590152 22870152
" />
<path d="M14160000 54800000
L7160000 47800000
" />
<path d="M7160000 47800000
L7160000 43140000
" />
<path d="M14160000 55840000
L14160000 54800000
" />
<path d="M10660000 48340000
L14160000 51840000
" />
<path d="M14160000 39140000
L10660000 42640000
" />
<path d="M10660000 42640000
L10660000 48340000
" />
<path d="M33520000 43184314
L49650060 43184314
" />
<path d="M49645060 22865152
L49650060 22870152
" />
<path d="M33520000 22865152
L49645060 22865152
" />
<path d="M14705152 22865152
L29520000 22865152
" />
<path d="M14660000 22820000
L14705152 22865152
" />
<path d="M14160000 22820000
L14660000 22820000
" />
<path d="M29475686 43140000
L29520000 43184314
" />
<path d="M14160000 43140000
L29475686 43140000
" />
<path d="M51647560 22865152
L51652560 22870152
" />
<path d="M31542576 22910304
L31497424 22865152
" />
<path d="M14160000 10120000
L14160000 18820000
" />
</g>
<g >
</g>
</g>
<g style="fill:#FFFFFF; fill-opacity:0.0; 
stroke:#FFFFFF; stroke-width:400000.000000; stroke-opacity:1; 
stroke-linecap:round; stroke-linejoin:round;">
</g>
<g style="fill:#FFFFFF; fill-opacity:1.0; 
stroke:#FFFFFF; stroke-width:1.000000; stroke-opacity:1; 
stroke-linecap:round; stroke-linejoin:round;">
<circle cx="76700000.000000" cy="26240000.000000" r="449999.500000" /> 
</g>
<g style="fill:#FFFFFF; fill-opacity:1.0; 
stroke:#FFFFFF; stroke-width:21200.000000; stroke-opacity:1; 
stroke-linecap:round; stroke-linejoin:round;">
</g>
<g style="fill:#FFFFFF; fill-opacity:1.0; 
stroke:#FFFFFF; stroke-width:1.000000; stroke-opacity:1; 
stroke-linecap:round; stroke-linejoin:round;">
<circle cx="76700000.000000" cy="30640000.000000" r="449999.500000" /> 
</g>
<g style="fill:#FFFFFF; fill-opacity:1.0; 
stroke:#FFFFFF; stroke-width:21200.000000; stroke-opacity:1; 
stroke-linecap:round; stroke-linejoin:round;">
</g>
<g style="fill:#000000; fill-opacity:1.0; 
stroke:#000000; stroke-width:21200.000000; stroke-opacity:1; 
stroke-linecap:round; stroke-linejoin:round;">
</g>
<g style="fill:#000000; fill-opacity:1.0; 
stroke:#000000; stroke-width:1000000.000000; stroke-opacity:1; 
stroke-linecap:round; stroke-linejoin:round;">
</g>
<g style="fill:#000000; fill-opacity:0.0; 
stroke:#000000; stroke-width:1000000.000000; stroke-opacity:1; 
stroke-linecap:round; stroke-linejoin:round;">
<path d="M500000 500000
L86860000 500000
" />
<path d="M86860000 500000
L86860000 64000000
" />
<path d="M86860000 64000000
L500000 64000000
" />
<path d="M500000 64000000
L500000 500000
" />
<g >
</g>
<g >
</g>
<g >
</g>
<g >
</g>
<g >
</g>
<g >
</g>
<g >
</g>
<g >
</g>
<g >
</g>
<g >
</g>
<g >
</g>
<g >
</g>
<g >
</g>
</g> 
</svg>
