<?xml version="1.0" standalone="no"?>
 <!DOCTYPE svg PUBLIC "-//W3C//DTD SVG 1.1//EN" 
 "http://www.w3.org/Graphics/SVG/1.1/DTD/svg11.dtd"> 
<svg
  xmlns:svg="http://www.w3.org/2000/svg"
  xmlns="http://www.w3.org/2000/svg"
  xmlns:xlink="http://www.w3.org/1999/xlink"
  version="1.1"
  width="14.000480cm" height="13.401040cm" viewBox="0 0 140004800 134010400">
<title>SVG Picture created as desafíoMT08-brd.svg date 2022/02/21 17:12:49 </title>
  <desc>Picture generated by PCBNEW </desc>
<g style="fill:#000000; fill-opacity:1.000000;stroke:#000000; stroke-opacity:1.000000;
stroke-linecap:round; stroke-linejoin:round;"
 transform="translate(0 0) scale(1 1)">
</g>
<g style="fill:#000000; fill-opacity:0.0; 
stroke:#000000; stroke-width:0.000000; stroke-opacity:1; 
stroke-linecap:round; stroke-linejoin:round;">
</g>
<g style="fill:#C83434; fill-opacity:0.0; 
stroke:#C83434; stroke-width:0.000000; stroke-opacity:1; 
stroke-linecap:round; stroke-linejoin:round;">
</g>
<g style="fill:#C83434; fill-opacity:0.0; 
stroke:#C83434; stroke-width:300000.000000; stroke-opacity:1; 
stroke-linecap:round; stroke-linejoin:round;">
<text x="112260000.000000" y="116300000.000000"
textLength="29247143.000000" font-size="4000000.000000" lengthAdjust="spacingAndGlyphs"
text-anchor="middle" opacity="0">Álvaro Reyes</text>
<g class="stroked-text"><desc>Álvaro Reyes</desc>
<path d="M98402857 115300000
L99831428 115300000
" />
<path d="M98117142 116157142
L99117142 113157142
L100117142 116157142
" />
<path d="M99402857 112014285
L98974285 112442857
" />
<path d="M101545714 116157142
L101260000 116014285
L101117142 115728571
L101117142 113157142
" />
<path d="M102402857 114157142
L103117142 116157142
L103831428 114157142
" />
<path d="M106260000 116157142
L106260000 114585714
L106117142 114300000
L105831428 114157142
L105260000 114157142
L104974285 114300000
" />
<path d="M106260000 116014285
L105974285 116157142
L105260000 116157142
L104974285 116014285
L104831428 115728571
L104831428 115442857
L104974285 115157142
L105260000 115014285
L105974285 115014285
L106260000 114871428
" />
<path d="M107688571 116157142
L107688571 114157142
" />
<path d="M107688571 114728571
L107831428 114442857
L107974285 114300000
L108260000 114157142
L108545714 114157142
" />
<path d="M109974285 116157142
L109688571 116014285
L109545714 115871428
L109402857 115585714
L109402857 114728571
L109545714 114442857
L109688571 114300000
L109974285 114157142
L110402857 114157142
L110688571 114300000
L110831428 114442857
L110974285 114728571
L110974285 115585714
L110831428 115871428
L110688571 116014285
L110402857 116157142
L109974285 116157142
" />
<path d="M116260000 116157142
L115260000 114728571
" />
<path d="M114545714 116157142
L114545714 113157142
L115688571 113157142
L115974285 113300000
L116117142 113442857
L116260000 113728571
L116260000 114157142
L116117142 114442857
L115974285 114585714
L115688571 114728571
L114545714 114728571
" />
<path d="M118688571 116014285
L118402857 116157142
L117831428 116157142
L117545714 116014285
L117402857 115728571
L117402857 114585714
L117545714 114300000
L117831428 114157142
L118402857 114157142
L118688571 114300000
L118831428 114585714
L118831428 114871428
L117402857 115157142
" />
<path d="M119831428 114157142
L120545714 116157142
" />
<path d="M121260000 114157142
L120545714 116157142
L120260000 116871428
L120117142 117014285
L119831428 117157142
" />
<path d="M123545714 116014285
L123260000 116157142
L122688571 116157142
L122402857 116014285
L122260000 115728571
L122260000 114585714
L122402857 114300000
L122688571 114157142
L123260000 114157142
L123545714 114300000
L123688571 114585714
L123688571 114871428
L122260000 115157142
" />
<path d="M124831428 116014285
L125117142 116157142
L125688571 116157142
L125974285 116014285
L126117142 115728571
L126117142 115585714
L125974285 115300000
L125688571 115157142
L125260000 115157142
L124974285 115014285
L124831428 114728571
L124831428 114585714
L124974285 114300000
L125260000 114157142
L125688571 114157142
L125974285 114300000
" />
</g><text x="132580000.000000" y="133330000.000000"
textLength="14961429.000000" font-size="2000000.000000" lengthAdjust="spacingAndGlyphs"
text-anchor="middle" opacity="0">21/02/2022</text>
<g class="stroked-text"><desc>21/02/2022</desc>
<path d="M125580000 131901428
L125651428 131830000
L125794285 131758571
L126151428 131758571
L126294285 131830000
L126365714 131901428
L126437142 132044285
L126437142 132187142
L126365714 132401428
L125508571 133258571
L126437142 133258571
" />
<path d="M127865714 133258571
L127008571 133258571
" />
<path d="M127437142 133258571
L127437142 131758571
L127294285 131972857
L127151428 132115714
L127008571 132187142
" />
<path d="M129580000 131687142
L128294285 133615714
" />
<path d="M130365714 131758571
L130508571 131758571
L130651428 131830000
L130722857 131901428
L130794285 132044285
L130865714 132330000
L130865714 132687142
L130794285 132972857
L130722857 133115714
L130651428 133187142
L130508571 133258571
L130365714 133258571
L130222857 133187142
L130151428 133115714
L130080000 132972857
L130008571 132687142
L130008571 132330000
L130080000 132044285
L130151428 131901428
L130222857 131830000
L130365714 131758571
" />
<path d="M131437142 131901428
L131508571 131830000
L131651428 131758571
L132008571 131758571
L132151428 131830000
L132222857 131901428
L132294285 132044285
L132294285 132187142
L132222857 132401428
L131365714 133258571
L132294285 133258571
" />
<path d="M134008571 131687142
L132722857 133615714
" />
<path d="M134437142 131901428
L134508571 131830000
L134651428 131758571
L135008571 131758571
L135151428 131830000
L135222857 131901428
L135294285 132044285
L135294285 132187142
L135222857 132401428
L134365714 133258571
L135294285 133258571
" />
<path d="M136222857 131758571
L136365714 131758571
L136508571 131830000
L136580000 131901428
L136651428 132044285
L136722857 132330000
L136722857 132687142
L136651428 132972857
L136580000 133115714
L136508571 133187142
L136365714 133258571
L136222857 133258571
L136080000 133187142
L136008571 133115714
L135937142 132972857
L135865714 132687142
L135865714 132330000
L135937142 132044285
L136008571 131901428
L136080000 131830000
L136222857 131758571
" />
<path d="M137294285 131901428
L137365714 131830000
L137508571 131758571
L137865714 131758571
L138008571 131830000
L138080000 131901428
L138151428 132044285
L138151428 132187142
L138080000 132401428
L137222857 133258571
L138151428 133258571
" />
<path d="M138722857 131901428
L138794285 131830000
L138937142 131758571
L139294285 131758571
L139437142 131830000
L139508571 131901428
L139580000 132044285
L139580000 132187142
L139508571 132401428
L138651428 133258571
L139580000 133258571
" />
</g><text x="104640000.000000" y="130790000.000000"
textLength="15532857.000000" font-size="2000000.000000" lengthAdjust="spacingAndGlyphs"
text-anchor="middle" opacity="0">Desafío MT08</text>
<g class="stroked-text"><desc>Desafío MT08</desc>
<path d="M97425714 130718571
L97425714 129218571
L97782857 129218571
L97997142 129290000
L98140000 129432857
L98211428 129575714
L98282857 129861428
L98282857 130075714
L98211428 130361428
L98140000 130504285
L97997142 130647142
L97782857 130718571
L97425714 130718571
" />
<path d="M99497142 130647142
L99354285 130718571
L99068571 130718571
L98925714 130647142
L98854285 130504285
L98854285 129932857
L98925714 129790000
L99068571 129718571
L99354285 129718571
L99497142 129790000
L99568571 129932857
L99568571 130075714
L98854285 130218571
" />
<path d="M100140000 130647142
L100282857 130718571
L100568571 130718571
L100711428 130647142
L100782857 130504285
L100782857 130432857
L100711428 130290000
L100568571 130218571
L100354285 130218571
L100211428 130147142
L100140000 130004285
L100140000 129932857
L100211428 129790000
L100354285 129718571
L100568571 129718571
L100711428 129790000
" />
<path d="M102068571 130718571
L102068571 129932857
L101997142 129790000
L101854285 129718571
L101568571 129718571
L101425714 129790000
" />
<path d="M102068571 130647142
L101925714 130718571
L101568571 130718571
L101425714 130647142
L101354285 130504285
L101354285 130361428
L101425714 130218571
L101568571 130147142
L101925714 130147142
L102068571 130075714
" />
<path d="M102568571 129718571
L103140000 129718571
" />
<path d="M102782857 130718571
L102782857 129432857
L102854285 129290000
L102997142 129218571
L103140000 129218571
" />
<path d="M103640000 130718571
L103640000 129718571
" />
<path d="M103782857 129147142
L103568571 129361428
" />
<path d="M104568571 130718571
L104425714 130647142
L104354285 130575714
L104282857 130432857
L104282857 130004285
L104354285 129861428
L104425714 129790000
L104568571 129718571
L104782857 129718571
L104925714 129790000
L104997142 129861428
L105068571 130004285
L105068571 130432857
L104997142 130575714
L104925714 130647142
L104782857 130718571
L104568571 130718571
" />
<path d="M106854285 130718571
L106854285 129218571
L107354285 130290000
L107854285 129218571
L107854285 130718571
" />
<path d="M108354285 129218571
L109211428 129218571
" />
<path d="M108782857 130718571
L108782857 129218571
" />
<path d="M109997142 129218571
L110140000 129218571
L110282857 129290000
L110354285 129361428
L110425714 129504285
L110497142 129790000
L110497142 130147142
L110425714 130432857
L110354285 130575714
L110282857 130647142
L110140000 130718571
L109997142 130718571
L109854285 130647142
L109782857 130575714
L109711428 130432857
L109640000 130147142
L109640000 129790000
L109711428 129504285
L109782857 129361428
L109854285 129290000
L109997142 129218571
" />
<path d="M111354285 129861428
L111211428 129790000
L111140000 129718571
L111068571 129575714
L111068571 129504285
L111140000 129361428
L111211428 129290000
L111354285 129218571
L111640000 129218571
L111782857 129290000
L111854285 129361428
L111925714 129504285
L111925714 129575714
L111854285 129718571
L111782857 129790000
L111640000 129861428
L111354285 129861428
L111211428 129932857
L111140000 130004285
L111068571 130147142
L111068571 130432857
L111140000 130575714
L111211428 130647142
L111354285 130718571
L111640000 130718571
L111782857 130647142
L111854285 130575714
L111925714 130432857
L111925714 130147142
L111854285 130004285
L111782857 129932857
L111640000 129861428
" />
</g><g >
</g>
<g style="fill:#C83434; fill-opacity:0.0; 
stroke:#C83434; stroke-width:1.000000; stroke-opacity:1; 
stroke-linecap:round; stroke-linejoin:round;">
</g>
<g style="fill:#C83434; fill-opacity:1.0; 
stroke:#C83434; stroke-width:1.000000; stroke-opacity:1; 
stroke-linecap:round; stroke-linejoin:round;">
<path style="fill:#C83434; fill-opacity:1.0; 
stroke:#C83434; stroke-width:1.000000; stroke-opacity:1; 
stroke-linecap:round; stroke-linejoin:round;fill-rule:evenodd;"
d="M 12910001.000000,19569999.000000
12910001.000000,18070001.000000
15409999.000000,18070001.000000
15409999.000000,19569999.000000
Z" /> 
<path style="fill:#C83434; fill-opacity:1.0; 
stroke:#C83434; stroke-width:1.000000; stroke-opacity:1; 
stroke-linecap:round; stroke-linejoin:round;fill-rule:evenodd;"
d="M 5910001.000000,19569999.000000
5910001.000000,18070001.000000
8409999.000000,18070001.000000
8409999.000000,19569999.000000
Z" /> 
<path style="fill:#C83434; fill-opacity:1.0; 
stroke:#C83434; stroke-width:1.000000; stroke-opacity:1; 
stroke-linecap:round; stroke-linejoin:round;fill-rule:evenodd;"
d="M 12910001.000000,23569999.000000
12910001.000000,22070001.000000
15409999.000000,22070001.000000
15409999.000000,23569999.000000
Z" /> 
<path style="fill:#C83434; fill-opacity:1.0; 
stroke:#C83434; stroke-width:1.000000; stroke-opacity:1; 
stroke-linecap:round; stroke-linejoin:round;fill-rule:evenodd;"
d="M 5910001.000000,23569999.000000
5910001.000000,22070001.000000
8409999.000000,22070001.000000
8409999.000000,23569999.000000
Z" /> 
</g>
<g >
</g>
<g style="fill:#C83434; fill-opacity:1.0; 
stroke:#C83434; stroke-width:1.000000; stroke-opacity:1; 
stroke-linecap:round; stroke-linejoin:round;">
<path style="fill:#C83434; fill-opacity:1.0; 
stroke:#C83434; stroke-width:1.000000; stroke-opacity:1; 
stroke-linecap:round; stroke-linejoin:round;fill-rule:evenodd;"
d="M 48650061.000000,44034313.000000
48650061.000000,42334315.000000
50650059.000000,42334315.000000
50650059.000000,44034313.000000
Z" /> 
<path style="fill:#C83434; fill-opacity:1.0; 
stroke:#C83434; stroke-width:1.000000; stroke-opacity:1; 
stroke-linecap:round; stroke-linejoin:round;fill-rule:evenodd;"
d="M 52650061.000000,44034313.000000
52650061.000000,42334315.000000
54650059.000000,42334315.000000
54650059.000000,44034313.000000
Z" /> 
</g>
<g >
</g>
<g style="fill:#C83434; fill-opacity:1.0; 
stroke:#C83434; stroke-width:1.000000; stroke-opacity:1; 
stroke-linecap:round; stroke-linejoin:round;">
<path style="fill:#C83434; fill-opacity:1.0; 
stroke:#C83434; stroke-width:1.000000; stroke-opacity:1; 
stroke-linecap:round; stroke-linejoin:round;fill-rule:evenodd;"
d="M 12910001.000000,39889999.000000
12910001.000000,38390001.000000
15409999.000000,38390001.000000
15409999.000000,39889999.000000
Z" /> 
<path style="fill:#C83434; fill-opacity:1.0; 
stroke:#C83434; stroke-width:1.000000; stroke-opacity:1; 
stroke-linecap:round; stroke-linejoin:round;fill-rule:evenodd;"
d="M 5910001.000000,39889999.000000
5910001.000000,38390001.000000
8409999.000000,38390001.000000
8409999.000000,39889999.000000
Z" /> 
<path style="fill:#C83434; fill-opacity:1.0; 
stroke:#C83434; stroke-width:1.000000; stroke-opacity:1; 
stroke-linecap:round; stroke-linejoin:round;fill-rule:evenodd;"
d="M 5910001.000000,43889999.000000
5910001.000000,42390001.000000
8409999.000000,42390001.000000
8409999.000000,43889999.000000
Z" /> 
<path style="fill:#C83434; fill-opacity:1.0; 
stroke:#C83434; stroke-width:1.000000; stroke-opacity:1; 
stroke-linecap:round; stroke-linejoin:round;fill-rule:evenodd;"
d="M 12910001.000000,43889999.000000
12910001.000000,42390001.000000
15409999.000000,42390001.000000
15409999.000000,43889999.000000
Z" /> 
</g>
<g >
</g>
<g style="fill:#C83434; fill-opacity:1.0; 
stroke:#C83434; stroke-width:1.000000; stroke-opacity:1; 
stroke-linecap:round; stroke-linejoin:round;">
<path style="fill:#C83434; fill-opacity:1.0; 
stroke:#C83434; stroke-width:1.000000; stroke-opacity:1; 
stroke-linecap:round; stroke-linejoin:round;fill-rule:evenodd;"
d="M 5910001.000000,6869999.000000
5910001.000000,5370001.000000
8409999.000000,5370001.000000
8409999.000000,6869999.000000
Z" /> 
<path style="fill:#C83434; fill-opacity:1.0; 
stroke:#C83434; stroke-width:1.000000; stroke-opacity:1; 
stroke-linecap:round; stroke-linejoin:round;fill-rule:evenodd;"
d="M 12910001.000000,6869999.000000
12910001.000000,5370001.000000
15409999.000000,5370001.000000
15409999.000000,6869999.000000
Z" /> 
<path style="fill:#C83434; fill-opacity:1.0; 
stroke:#C83434; stroke-width:1.000000; stroke-opacity:1; 
stroke-linecap:round; stroke-linejoin:round;fill-rule:evenodd;"
d="M 12910001.000000,10869999.000000
12910001.000000,9370001.000000
15409999.000000,9370001.000000
15409999.000000,10869999.000000
Z" /> 
<path style="fill:#C83434; fill-opacity:1.0; 
stroke:#C83434; stroke-width:1.000000; stroke-opacity:1; 
stroke-linecap:round; stroke-linejoin:round;fill-rule:evenodd;"
d="M 5910001.000000,10869999.000000
5910001.000000,9370001.000000
8409999.000000,9370001.000000
8409999.000000,10869999.000000
Z" /> 
</g>
<g >
</g>
<g style="fill:#C83434; fill-opacity:1.0; 
stroke:#C83434; stroke-width:1.000000; stroke-opacity:1; 
stroke-linecap:round; stroke-linejoin:round;">
<path style="fill:#C83434; fill-opacity:1.0; 
stroke:#C83434; stroke-width:1.000000; stroke-opacity:1; 
stroke-linecap:round; stroke-linejoin:round;fill-rule:evenodd;"
d="M 48650061.000000,23720151.000000
48650061.000000,22020153.000000
50650059.000000,22020153.000000
50650059.000000,23720151.000000
Z" /> 
<path style="fill:#C83434; fill-opacity:1.0; 
stroke:#C83434; stroke-width:1.000000; stroke-opacity:1; 
stroke-linecap:round; stroke-linejoin:round;fill-rule:evenodd;"
d="M 52650061.000000,23720151.000000
52650061.000000,22020153.000000
54650059.000000,22020153.000000
54650059.000000,23720151.000000
Z" /> 
</g>
<g >
</g>
<g style="fill:#C83434; fill-opacity:1.0; 
stroke:#C83434; stroke-width:1.000000; stroke-opacity:1; 
stroke-linecap:round; stroke-linejoin:round;">
<path style="fill:#C83434; fill-opacity:1.0; 
stroke:#C83434; stroke-width:1.000000; stroke-opacity:1; 
stroke-linecap:round; stroke-linejoin:round;fill-rule:evenodd;"
d="M 34519999.000000,22015153.000000
34519999.000000,23715151.000000
32520001.000000,23715151.000000
32520001.000000,22015153.000000
Z" /> 
<path style="fill:#C83434; fill-opacity:1.0; 
stroke:#C83434; stroke-width:1.000000; stroke-opacity:1; 
stroke-linecap:round; stroke-linejoin:round;fill-rule:evenodd;"
d="M 30519999.000000,22015153.000000
30519999.000000,23715151.000000
28520001.000000,23715151.000000
28520001.000000,22015153.000000
Z" /> 
</g>
<g >
</g>
<g style="fill:#C83434; fill-opacity:1.0; 
stroke:#C83434; stroke-width:1.000000; stroke-opacity:1; 
stroke-linecap:round; stroke-linejoin:round;">
<path style="fill:#C83434; fill-opacity:1.0; 
stroke:#C83434; stroke-width:1.000000; stroke-opacity:1; 
stroke-linecap:round; stroke-linejoin:round;fill-rule:evenodd;"
d="M 75349999.000000,30289999.000000
72850001.000000,30289999.000000
72850001.000000,29790001.000000
75349999.000000,29790001.000000
Z" /> 
<path style="fill:#C83434; fill-opacity:1.0; 
stroke:#C83434; stroke-width:1.000000; stroke-opacity:1; 
stroke-linecap:round; stroke-linejoin:round;fill-rule:evenodd;"
d="M 75349999.000000,29489999.000000
72850001.000000,29489999.000000
72850001.000000,28990001.000000
75349999.000000,28990001.000000
Z" /> 
<path style="fill:#C83434; fill-opacity:1.0; 
stroke:#C83434; stroke-width:1.000000; stroke-opacity:1; 
stroke-linecap:round; stroke-linejoin:round;fill-rule:evenodd;"
d="M 75349999.000000,28689999.000000
72850001.000000,28689999.000000
72850001.000000,28190001.000000
75349999.000000,28190001.000000
Z" /> 
<path style="fill:#C83434; fill-opacity:1.0; 
stroke:#C83434; stroke-width:1.000000; stroke-opacity:1; 
stroke-linecap:round; stroke-linejoin:round;fill-rule:evenodd;"
d="M 75349999.000000,27889999.000000
72850001.000000,27889999.000000
72850001.000000,27390001.000000
75349999.000000,27390001.000000
Z" /> 
<path style="fill:#C83434; fill-opacity:1.0; 
stroke:#C83434; stroke-width:1.000000; stroke-opacity:1; 
stroke-linecap:round; stroke-linejoin:round;fill-rule:evenodd;"
d="M 75349999.000000,27089999.000000
72850001.000000,27089999.000000
72850001.000000,26590001.000000
75349999.000000,26590001.000000
Z" /> 
<path style="fill:#C83434; fill-opacity:1.0; 
stroke:#C83434; stroke-width:1.000000; stroke-opacity:1; 
stroke-linecap:round; stroke-linejoin:round;fill-rule:evenodd;"
d="M 75349999.000000,33839999.000000
72850001.000000,33839999.000000
72850001.000000,31840001.000000
75349999.000000,31840001.000000
Z" /> 
<path style="fill:#C83434; fill-opacity:1.0; 
stroke:#C83434; stroke-width:1.000000; stroke-opacity:1; 
stroke-linecap:round; stroke-linejoin:round;fill-rule:evenodd;"
d="M 80849999.000000,33839999.000000
78350001.000000,33839999.000000
78350001.000000,31840001.000000
80849999.000000,31840001.000000
Z" /> 
<path style="fill:#C83434; fill-opacity:1.0; 
stroke:#C83434; stroke-width:1.000000; stroke-opacity:1; 
stroke-linecap:round; stroke-linejoin:round;fill-rule:evenodd;"
d="M 75349999.000000,25039999.000000
72850001.000000,25039999.000000
72850001.000000,23040001.000000
75349999.000000,23040001.000000
Z" /> 
<path style="fill:#C83434; fill-opacity:1.0; 
stroke:#C83434; stroke-width:1.000000; stroke-opacity:1; 
stroke-linecap:round; stroke-linejoin:round;fill-rule:evenodd;"
d="M 80849999.000000,25039999.000000
78350001.000000,25039999.000000
78350001.000000,23040001.000000
80849999.000000,23040001.000000
Z" /> 
</g>
<g >
</g>
<g style="fill:#C83434; fill-opacity:1.0; 
stroke:#C83434; stroke-width:1.000000; stroke-opacity:1; 
stroke-linecap:round; stroke-linejoin:round;">
<path style="fill:#C83434; fill-opacity:1.0; 
stroke:#C83434; stroke-width:1.000000; stroke-opacity:1; 
stroke-linecap:round; stroke-linejoin:round;fill-rule:evenodd;"
d="M 12910001.000000,52589999.000000
12910001.000000,51090001.000000
15409999.000000,51090001.000000
15409999.000000,52589999.000000
Z" /> 
<path style="fill:#C83434; fill-opacity:1.0; 
stroke:#C83434; stroke-width:1.000000; stroke-opacity:1; 
stroke-linecap:round; stroke-linejoin:round;fill-rule:evenodd;"
d="M 5910001.000000,52589999.000000
5910001.000000,51090001.000000
8409999.000000,51090001.000000
8409999.000000,52589999.000000
Z" /> 
<path style="fill:#C83434; fill-opacity:1.0; 
stroke:#C83434; stroke-width:1.000000; stroke-opacity:1; 
stroke-linecap:round; stroke-linejoin:round;fill-rule:evenodd;"
d="M 12910001.000000,56589999.000000
12910001.000000,55090001.000000
15409999.000000,55090001.000000
15409999.000000,56589999.000000
Z" /> 
<path style="fill:#C83434; fill-opacity:1.0; 
stroke:#C83434; stroke-width:1.000000; stroke-opacity:1; 
stroke-linecap:round; stroke-linejoin:round;fill-rule:evenodd;"
d="M 5910001.000000,56589999.000000
5910001.000000,55090001.000000
8409999.000000,55090001.000000
8409999.000000,56589999.000000
Z" /> 
</g>
<g >
</g>
<g style="fill:#C83434; fill-opacity:1.0; 
stroke:#C83434; stroke-width:1.000000; stroke-opacity:1; 
stroke-linecap:round; stroke-linejoin:round;">
<path style="fill:#C83434; fill-opacity:1.0; 
stroke:#C83434; stroke-width:1.000000; stroke-opacity:1; 
stroke-linecap:round; stroke-linejoin:round;fill-rule:evenodd;"
d="M 72910001.000000,44529999.000000
72910001.000000,42830001.000000
75409999.000000,42830001.000000
75409999.000000,44529999.000000
Z" /> 
<path style="fill:#C83434; fill-opacity:1.0; 
stroke:#C83434; stroke-width:1.000000; stroke-opacity:1; 
stroke-linecap:round; stroke-linejoin:round;fill-rule:evenodd;"
d="M 72910001.000000,41989999.000000
72910001.000000,40290001.000000
75409999.000000,40290001.000000
75409999.000000,41989999.000000
Z" /> 
</g>
<g >
</g>
<g style="fill:#C83434; fill-opacity:1.0; 
stroke:#C83434; stroke-width:1.000000; stroke-opacity:1; 
stroke-linecap:round; stroke-linejoin:round;">
<path style="fill:#C83434; fill-opacity:1.0; 
stroke:#C83434; stroke-width:1.000000; stroke-opacity:1; 
stroke-linecap:round; stroke-linejoin:round;fill-rule:evenodd;"
d="M 34519999.000000,42334315.000000
34519999.000000,44034313.000000
32520001.000000,44034313.000000
32520001.000000,42334315.000000
Z" /> 
<path style="fill:#C83434; fill-opacity:1.0; 
stroke:#C83434; stroke-width:1.000000; stroke-opacity:1; 
stroke-linecap:round; stroke-linejoin:round;fill-rule:evenodd;"
d="M 30519999.000000,42334315.000000
30519999.000000,44034313.000000
28520001.000000,44034313.000000
28520001.000000,42334315.000000
Z" /> 
</g>
<g >
</g>
<g >
</g>
<g style="fill:#C83434; fill-opacity:1.0; 
stroke:#C83434; stroke-width:1.000000; stroke-opacity:1; 
stroke-linecap:round; stroke-linejoin:round;">
</g>
<g style="fill:#C83434; fill-opacity:1.0; 
stroke:#C83434; stroke-width:400000.000000; stroke-opacity:1; 
stroke-linecap:round; stroke-linejoin:round;">
</g>
<g style="fill:#C83434; fill-opacity:0.0; 
stroke:#C83434; stroke-width:400000.000000; stroke-opacity:1; 
stroke-linecap:round; stroke-linejoin:round;">
<path d="M10660000 33520000
L10660000 9120000
" />
<path d="M64000000 38600000
L64000000 32991015
" />
<path d="M53650060 22870152
L53650060 43184314
" />
<path d="M76700000 46220000
L71080000 51840000
" />
<path d="M76700000 42030000
L76700000 46220000
" />
<path d="M71080000 51840000
L14160000 51840000
" />
<path d="M75810000 41140000
L76700000 42030000
" />
<path d="M74160000 41140000
L75810000 41140000
" />
<path d="M73664314 43184314
L74160000 43680000
" />
<path d="M53650060 43184314
L73664314 43184314
" />
<path d="M72510489 26790489
L74100000 26790489
" />
<path d="M68590152 22870152
L72510489 26790489
" />
<path d="M7160000 37020000
L7160000 39140000
" />
<path d="M10660000 33520000
L7160000 37020000
" />
<path d="M7660000 6120000
L10660000 9120000
" />
<path d="M7160000 6120000
L7660000 6120000
" />
<path d="M54145746 43680000
L53650060 43184314
" />
<path d="M66540000 41140000
L64000000 38600000
" />
<path d="M64000000 32991015
L66901504 30089511
" />
<path d="M74160000 41140000
L66540000 41140000
" />
<path d="M66901504 30089511
L74100000 30089511
" />
<path d="M53650060 22870152
L68590152 22870152
" />
<path d="M14160000 54800000
L7160000 47800000
" />
<path d="M7160000 47800000
L7160000 43140000
" />
<path d="M14160000 55840000
L14160000 54800000
" />
<path d="M10660000 48340000
L14160000 51840000
" />
<path d="M14160000 39140000
L10660000 42640000
" />
<path d="M10660000 42640000
L10660000 48340000
" />
<path d="M33520000 43184314
L49650060 43184314
" />
<path d="M49645060 22865152
L49650060 22870152
" />
<path d="M33520000 22865152
L49645060 22865152
" />
<path d="M14705152 22865152
L29520000 22865152
" />
<path d="M14660000 22820000
L14705152 22865152
" />
<path d="M14160000 22820000
L14660000 22820000
" />
<path d="M29475686 43140000
L29520000 43184314
" />
<path d="M14160000 43140000
L29475686 43140000
" />
<path d="M51647560 22865152
L51652560 22870152
" />
<path d="M31542576 22910304
L31497424 22865152
" />
<path d="M14160000 10120000
L14160000 18820000
" />
</g>
<g >
</g>
</g>
<g style="fill:#FFFFFF; fill-opacity:0.0; 
stroke:#FFFFFF; stroke-width:400000.000000; stroke-opacity:1; 
stroke-linecap:round; stroke-linejoin:round;">
</g>
<g style="fill:#FFFFFF; fill-opacity:1.0; 
stroke:#FFFFFF; stroke-width:1.000000; stroke-opacity:1; 
stroke-linecap:round; stroke-linejoin:round;">
<circle cx="76700000.000000" cy="26240000.000000" r="449999.500000" /> 
</g>
<g style="fill:#FFFFFF; fill-opacity:1.0; 
stroke:#FFFFFF; stroke-width:21200.000000; stroke-opacity:1; 
stroke-linecap:round; stroke-linejoin:round;">
</g>
<g style="fill:#FFFFFF; fill-opacity:1.0; 
stroke:#FFFFFF; stroke-width:1.000000; stroke-opacity:1; 
stroke-linecap:round; stroke-linejoin:round;">
<circle cx="76700000.000000" cy="30640000.000000" r="449999.500000" /> 
</g>
<g style="fill:#FFFFFF; fill-opacity:1.0; 
stroke:#FFFFFF; stroke-width:21200.000000; stroke-opacity:1; 
stroke-linecap:round; stroke-linejoin:round;">
</g>
<g style="fill:#000000; fill-opacity:1.0; 
stroke:#000000; stroke-width:21200.000000; stroke-opacity:1; 
stroke-linecap:round; stroke-linejoin:round;">
</g>
<g style="fill:#D0D2CD; fill-opacity:1.0; 
stroke:#D0D2CD; stroke-width:21200.000000; stroke-opacity:1; 
stroke-linecap:round; stroke-linejoin:round;">
</g>
<g style="fill:#D0D2CD; fill-opacity:1.0; 
stroke:#D0D2CD; stroke-width:1000000.000000; stroke-opacity:1; 
stroke-linecap:round; stroke-linejoin:round;">
</g>
<g style="fill:#D0D2CD; fill-opacity:0.0; 
stroke:#D0D2CD; stroke-width:1000000.000000; stroke-opacity:1; 
stroke-linecap:round; stroke-linejoin:round;">
<path d="M500000 500000
L86860000 500000
" />
<path d="M86860000 500000
L86860000 64000000
" />
<path d="M86860000 64000000
L500000 64000000
" />
<path d="M500000 64000000
L500000 500000
" />
<g >
</g>
<g >
</g>
<g >
</g>
<g >
</g>
<g >
</g>
<g >
</g>
<g >
</g>
<g >
</g>
<g >
</g>
<g >
</g>
<g >
</g>
<g >
</g>
<g >
</g>
</g> 
</svg>
